$ 1 0.000005 0.024252107463564872 50 5 50
x 26 -88 338 -85 4 24 Deoscillated\sSR\snor\sFlip-Flop
x 30 -48 37 -45 4 24 r
x 440 -39 458 -36 4 24 Q
x 35 78 47 81 4 24 s
M 256 -16 448 -16 0 2.5
L 128 96 48 96 0 0 false 5 0
L 128 -32 48 -32 0 0 false 5 0
w 256 -16 256 16 0
w 128 16 128 0 0
w 240 80 128 16 0
w 240 112 240 80 0
w 384 80 384 128 0
w 304 80 384 80 0
153 128 -16 256 -16 0 2 0 5
153 128 112 240 112 0 2 5 5
150 304 32 416 32 0 2 0 5
w 256 16 304 16 0
x 165 114 201 117 4 9 feedback
w 416 32 416 176 0
w 416 176 128 176 0
w 128 176 128 128 0
x 334 31 384 34 4 9 deoscillator2
150 272 128 384 128 0 2 0 5
w 304 80 304 48 0
w 256 16 256 128 0
w 256 128 272 128 0
w 272 128 272 112 0
w 272 128 272 144 0
x 302 130 352 133 4 9 deoscillator1
